﻿player,player-href,Matches,Runs,High Score,Average,image-src
"V Sehwag","http://www.espncricinfo.com/ci/content/player/35263.html","251","8273","219","35.05","http://www.espncricinfo.com/inline/content/image/817299.html?alt=1"
"A Symonds","http://www.espncricinfo.com/ci/content/player/7702.html","198","5088","156","39.75","http://www.espncricinfo.com/inline/content/image/407333.html?alt=1"
"RT Ponting","http://www.espncricinfo.com/ci/content/player/7133.html","375","13704","164","42.03","http://www.espncricinfo.com/inline/content/image/817155.html?alt=1"
"VVS Laxman","http://www.espncricinfo.com/ci/content/player/30750.html","86","2338","131","30.76","http://www.espncricinfo.com/inline/content/image/361910.html?alt=1"
"Yuvraj Singh","http://www.espncricinfo.com/ci/content/player/36084.html","293","8329","139","36.37","http://www.espncricinfo.com/inline/content/image/817283.html?alt=1"
"SR Tendulkar","http://www.espncricinfo.com/ci/content/player/35320.html","463","18426","200*","44.83","http://www.espncricinfo.com/inline/content/image/501527.html?alt=1"
"R Dravid","http://www.espncricinfo.com/ci/content/player/28114.html","344","10889","153","39.16","http://www.espncricinfo.com/inline/content/image/425831.html?alt=1"
"MG Bevan","http://www.espncricinfo.com/ci/content/player/4144.html","232","6912","108*","53.58","http://www.espncricinfo.com/inline/content/image/261431.html"
"ML Hayden","http://www.espncricinfo.com/ci/content/player/5616.html","161","6133","181*","43.80","http://www.espncricinfo.com/inline/content/image/288134.html?alt=1"
"M Kaif","http://www.espncricinfo.com/ci/content/player/29990.html","125","2753","111*","32.01","http://www.espncricinfo.com/inline/content/image/437542.html?alt=1"
"AC Gilchrist","http://www.espncricinfo.com/ci/content/player/5390.html","287","9619","172","35.89","http://www.espncricinfo.com/inline/content/image/284374.html?alt=1"
"DR Martyn","http://www.espncricinfo.com/ci/content/player/6513.html","208","5346","144*","40.80","http://www.espncricinfo.com/inline/content/image/215978.html?alt=1"
"MJ Clarke","http://www.espncricinfo.com/ci/content/player/4578.html","245","7981","130","44.58","http://www.espncricinfo.com/inline/content/image/817097.html?alt=1"
