﻿player,player-href,Matches,Runs,High Score,Average,image-src
"RR Sarwan","http://www.espncricinfo.com/ci/content/player/52969.html","181","5804","120*","42.67","http://www.espncricinfo.com/inline/content/image/818673.html?alt=1"
"ME Trescothick","http://www.espncricinfo.com/ci/content/player/21585.html","123","4335","137","37.37","http://www.espncricinfo.com/inline/content/image/509932.html?alt=1"
"BC Lara","http://www.espncricinfo.com/ci/content/player/52337.html","299","10405","169","40.48","http://www.espncricinfo.com/inline/content/image/259482.html?alt=1"
"DJ Bravo","http://www.espncricinfo.com/ci/content/player/51439.html","164","2968","112*","25.36","http://www.espncricinfo.com/inline/content/image/818691.html?alt=1"
"A Flintoff","http://www.espncricinfo.com/ci/content/player/12856.html","141","3394","123","32.01","http://www.espncricinfo.com/inline/content/image/810221.html?alt=1"
"PD Collingwood","http://www.espncricinfo.com/ci/content/player/10772.html","197","5092","120*","35.36","http://www.espncricinfo.com/inline/content/image/559760.html?alt=1"
"S Chanderpaul","http://www.espncricinfo.com/ci/content/player/51469.html","268","8778","150","41.60","http://www.espncricinfo.com/inline/content/image/822073.html?alt=1"
"CH Gayle","http://www.espncricinfo.com/ci/content/player/51880.html","269","9221","215","37.33","http://www.espncricinfo.com/inline/content/image/818675.html?alt=1"
